1 0 146 0.009182012270524087
1 1 176 0.009182012270524087
1 1 146 0.007225718359988327
1 1 152 0.007225718359988327
1 1 181 0.011651900528114963
1 1 174 0.011651900528114963
1 1 134 0.006747393720260461
1 1 113 0.006747393720260461
1 0 94 0.007334641334114438
1 1 166 0.007334641334114438
1 1 180 0.0014975576067838901
1 1 145 0.0014975576067838901
1 1 146 0.0021998220911248587
1 1 176 0.0021998220911248587
1 1 148 0.000383965094468917
1 0 159 0.000383965094468917
1 1 146 0.011845583386189806
1 1 180 0.011845583386189806
1 1 141 0.006175395551488041
1 1 123 0.006175395551488041
1 1 182 0.017758738473917155
1 0 168 0.017758738473917155
1 0 146 0.009440281305437078
1 1 173 0.009440281305437078
1 1 164 0.009959702484617108
0 0 92 0.009959702484617108
1 1 181 0.0068366797214057745
1 1 127 0.0068366797214057745
1 1 140 0.011731498916545798
1 1 179 0.011731498916545798
1 1 180 0.010232898290255983
1 1 180 0.010232898290255983
1 1 146 0.0005584175240006908
1 1 179 0.0005584175240006908
1 1 180 0.004027302900976775
1 1 105 0.004027302900976775
1 0 146 0.004573888088608748
1 1 181 0.004573888088608748
1 1 146 0.009195330533038245
1 1 140 0.009195330533038245
1 1 147 0.007790914512119225
0 0 80 0.007790914512119225
1 1 181 0.008423499385193739
1 0 124 0.008423499385193739
1 1 147 0.0026313559640028204
1 1 140 0.0026313559640028204
1 1 176 0.0027059786994685893
1 1 165 0.0027059786994685893
1 1 156 0.0023102633417403052
0 0 78 0.0023102633417403052
1 1 146 0.0020362882969182923
1 1 125 0.0020362882969182923
1 1 147 0.002036328724125925
1 1 122 0.002036328724125925
1 1 183 0.006817625900058772
1 0 81 0.006817625900058772
1 1 181 0.005627947452735427
1 0 140 0.005627947452735427
1 1 147 0.007813410686360498
1 0 146 0.007813410686360498
1 1 182 0.0037172128558022916
1 1 170 0.0037172128558022916
1 1 146 0.004993493905890392
1 1 172 0.004993493905890392
1 1 181 0.00817772692458255
1 1 169 0.00817772692458255
0 0 147 0.009196530576637541
1 1 91 0.009196530576637541
1 1 147 0.010491275035574135
1 1 182 0.010491275035574135
1 1 135 0.0028339261869512375
1 0 123 0.0028339261869512375
1 1 142 0.0027862755262172594
1 1 169 0.0027862755262172594
1 1 141 0.005070255800181418
1 1 135 0.005070255800181418
1 1 148 2.5017945748739715e-14
1 1 176 2.5017945748739715e-14
1 1 178 0.004031745274558073
1 1 176 0.004031745274558073
1 0 182 0.002622255797481908
1 1 104 0.002622255797481908
1 1 146 0.0027167326474855126
1 1 146 0.0027167326474855126
1 1 179 0.004564954699035918
1 1 83 0.004564954699035918
1 1 180 0.0006741598952109677
1 1 179 0.0006741598952109677
1 1 94 2.3603967318732924e-05
1 1 166 2.3603967318732924e-05
1 1 182 1.972920606791913e-07
1 1 178 1.972920606791913e-07
1 0 176 0.0037039785580438573
1 1 93 0.0037039785580438573
1 1 177 0.0031800035144224754
1 1 166 0.0031800035144224754
1 1 183 0.004099140274502425
1 1 105 0.004099140274502425
1 1 180 3.399045226968343e-05
1 1 172 3.399045226968343e-05
1 1 180 0.003290236531849877
1 1 178 0.003290236531849877
1 1 180 0.0032446829971519947
1 1 152 0.0032446829971519947
1 1 177 0.003689149513902104
1 1 170 0.003689149513902104
1 1 84 0.004220187069304373
1 0 152 0.004220187069304373
1 1 147 0.00018646716688330947
1 1 109 0.00018646716688330947
1 1 146 0.00401669317922226
1 1 152 0.00401669317922226
1 1 178 3.577469699324291e-08
1 1 174 3.577469699324291e-08
1 1 151 0.0044676672771691815
1 1 110 0.0044676672771691815
1 1 146 0.0013384451364547127
1 1 178 0.0013384451364547127
1 1 134 0.004040809344837195
1 1 104 0.004040809344837195
1 0 147 0.004033989305025938
1 1 148 0.004033989305025938
1 1 180 0.005352634155127787
1 1 143 0.005352634155127787
1 0 172 0.0028848895223268713
1 1 76 0.0028848895223268713
1 1 178 0.003036300109162443
1 1 122 0.003036300109162443
1 1 174 0.002834528693457297
1 1 93 0.002834528693457297
1 1 177 0.0035093688452728527
1 1 177 0.0035093688452728527
1 1 131 0.003868828815063722
1 1 83 0.003868828815063722
1 0 146 0.003001969445722777
1 1 94 0.003001969445722777
1 0 182 0.0031621149562803446
1 1 82 0.0031621149562803446
1 1 149 0.002446035909570061
1 1 164 0.002446035909570061
1 1 147 0.0010677575679129301
0 0 154 0.0010677575679129301
1 1 164 0.00597057828649707
1 1 156 0.00597057828649707
1 0 147 0.0
1 1 91 0.0
1 1 146 0.0038160609955180873
1 0 122 0.0038160609955180873
1 1 124 1.7782661004459418e-07
1 0 88 1.7782661004459418e-07
1 1 146 0.004253020160695167
1 1 139 0.004253020160695167
1 1 146 0.0006411144827980274
1 1 182 0.0006411144827980274
1 1 149 0.0046367009297724505
1 1 135 0.0046367009297724505
1 1 161 2.2339702070551107e-07
1 1 157 2.2339702070551107e-07
1 1 146 0.00018884012678974988
1 0 122 0.00018884012678974988
1 1 182 0.0032080177814869156
1 1 83 0.0032080177814869156
1 1 181 0.0043170659363360765
1 1 162 0.0043170659363360765
1 1 146 0.0025964261753689136
1 1 181 0.0025964261753689136
1 1 146 0.0028349035358743286
1 0 123 0.0028349035358743286
1 1 182 0.004741141709829927
0 0 90 0.004741141709829927
1 1 140 0.002333417545745265
1 1 122 0.002333417545745265
1 1 135 0.004481350814437618
1 0 135 0.004481350814437618
1 1 147 0.00459145931335653
1 0 152 0.00459145931335653
1 1 178 0.0025725533179968567
1 1 122 0.0025725533179968567
1 1 171 0.002291502594575386
1 1 169 0.002291502594575386
0 1 135 0.001917588741891067
0 1 161 0.001917588741891067
1 1 140 0.005408246250709663
1 1 128 0.005408246250709663
1 1 151 0.00018112757544680252
1 1 172 0.00018112757544680252
1 0 147 0.0007732657615143265
1 1 110 0.0007732657615143265
1 1 183 0.00016948445893515552
1 1 122 0.00016948445893515552
1 1 180 0.0007916516461976928
1 1 146 0.0007916516461976928
1 1 177 0.00283037346821391
1 1 160 0.00283037346821391
1 1 133 0.0024344057305227236
0 0 153 0.0024344057305227236
1 1 148 0.003193963663824671
1 1 153 0.003193963663824671
1 1 169 0.0034020383087240394
0 1 154 0.0034020383087240394
1 1 180 0.0008690622936180981
1 0 142 0.0008690622936180981
1 1 122 0.00018457169583444293
1 0 161 0.00018457169583444293
1 1 140 0.0029763733894326754
1 1 171 0.0029763733894326754
1 1 177 0.003736138199028674
1 1 174 0.003736138199028674
1 1 169 0.0014632577973395077
1 1 166 0.0014632577973395077
1 1 180 0.0024156403116184304
1 1 111 0.0024156403116184304
1 1 180 0.0007038869777746699
1 1 177 0.0007038869777746699
1 1 127 0.00016518501101878735
1 1 116 0.00016518501101878735
1 1 169 1.8799070038962594e-14
1 1 165 1.8799070038962594e-14
1 1 178 0.0036358719972545196
1 1 169 0.0036358719972545196
1 1 176 0.002499940506809582
1 0 90 0.002499940506809582
1 1 182 0.0005039936872174485
1 1 153 0.0005039936872174485
1 1 150 0.0044982954274285355
1 1 122 0.0044982954274285355
1 1 181 0.0025155268326303047
1 1 183 0.0025155268326303047
1 1 177 0.0029313464837363865
1 1 84 0.0029313464837363865
1 1 149 0.00019301271500594294
1 1 171 0.00019301271500594294
1 1 134 0.001473906536076778
1 1 134 0.001473906536076778
1 0 142 0.0006398651062945167
0 0 178 0.0006398651062945167
1 0 134 0.0038760365251240595
1 1 152 0.0038760365251240595
1 1 182 0.002893265749781336
1 1 172 0.002893265749781336
1 1 116 0.0026134117162768668
1 1 110 0.0026134117162768668
1 1 146 0.002770623734718995
1 1 167 0.002770623734718995
1 1 169 0.0028088193411118984
1 1 170 0.0028088193411118984
1 1 181 2.8394988050905713e-05
1 1 140 2.8394988050905713e-05
1 1 178 0.002846013326884211
1 1 99 0.002846013326884211
1 0 143 0.0029502338462679273
1 0 158 0.0029502338462679273
1 1 174 0.002635972423595811
1 1 93 0.002635972423595811
1 1 183 0.003048176814454063
1 1 155 0.003048176814454063
1 1 182 0.0015943195215776937
1 1 93 0.0015943195215776937
1 1 147 0.0007101878103447261
0 0 163 0.0007101878103447261
1 1 147 0.0036854633476912147
1 1 104 0.0036854633476912147
1 1 180 0.0
1 1 104 0.0
1 1 179 0.0
1 0 137 0.0
1 0 179 0.0016990851942191637
1 1 90 0.0016990851942191637
1 1 165 0.002991838094479586
1 1 90 0.002991838094479586
1 1 183 0.002192957215067013
1 1 176 0.002192957215067013
1 1 181 0.0
1 1 172 0.0
1 1 183 0.0034332512427264253
1 1 176 0.0034332512427264253
1 1 135 0.0001832872482641355
1 0 160 0.0001832872482641355
1 1 92 0.002933270670446109
1 1 159 0.002933270670446109
1 1 146 0.0030298210235288263
1 1 93 0.0030298210235288263
1 1 146 0.0027875185223243896
1 1 178 0.0027875185223243896
1 1 151 0.003636195606132645
1 1 134 0.003636195606132645
1 1 176 0.0030641827880791214
1 1 76 0.0030641827880791214
1 1 180 0.0017052169733205672
1 0 82 0.0017052169733205672
1 0 147 0.001112798716547321
1 1 176 0.001112798716547321
1 1 177 2.3325714696126067e-14
1 0 173 2.3325714696126067e-14
1 1 146 0.003959477465609842
1 0 128 0.003959477465609842
1 1 113 0.0022298954690646877
1 1 93 0.0022298954690646877
1 1 146 0.002259932474510798
1 1 179 0.002259932474510798
1 1 149 0.0017511801112046893
1 1 116 0.0017511801112046893
1 1 146 0.0028795630270128806
1 1 181 0.0028795630270128806
1 1 160 0.0028885765415890253
1 1 154 0.0028885765415890253
1 1 146 0.0026297267643291813
1 1 180 0.0026297267643291813
1 1 180 0.005493397246352568
1 1 179 0.005493397246352568
1 1 146 0.003934273195497858
1 1 93 0.003934273195497858
1 0 146 0.002372979121753354
1 1 182 0.002372979121753354
1 1 181 0.004796144065161668
1 1 165 0.004796144065161668
1 1 150 0.0050756897425191785
1 0 158 0.0050756897425191785
1 1 180 0.0026651243978224244
1 1 146 0.0026651243978224244
1 1 181 0.004739123249171736
1 1 165 0.004739123249171736
1 1 181 0.0
1 0 128 0.0
1 1 134 0.0012701244506157963
1 1 138 0.0012701244506157963
1 1 177 0.003844582360637349
1 1 122 0.003844582360637349
1 1 181 0.002952718673104408
1 1 137 0.002952718673104408
1 1 150 0.003917491481129525
1 1 134 0.003917491481129525
1 1 174 0.0021945723426704325
1 1 109 0.0021945723426704325
1 1 178 0.0037909017373049564
1 0 125 0.0037909017373049564
1 1 177 0.0003719803693381725
1 1 167 0.0003719803693381725
1 1 146 0.0028598910586988464
1 1 141 0.0028598910586988464
1 1 146 0.0017814070917552204
1 1 152 0.0017814070917552204
1 1 176 0.001939492432424306
1 1 177 0.001939492432424306
1 0 122 0.001915961598243348
1 1 166 0.001915961598243348
1 1 180 0.0
1 1 154 0.0
1 1 164 0.0
1 0 152 0.0
1 1 177 0.0009659066697895372
1 1 154 0.0009659066697895372
1 1 151 1.5452545121348964e-07
1 1 110 1.5452545121348964e-07
1 1 181 0.0023422796257919947
1 0 93 0.0023422796257919947
1 1 181 0.001153210805011602
1 1 178 0.001153210805011602
1 1 146 0.000274105305670975
1 1 143 0.000274105305670975
1 1 146 0.0
1 1 181 0.0
1 1 149 0.0
1 1 170 0.0
1 1 180 0.0016521887777068247
1 0 177 0.0016521887777068247
1 1 178 0.0
1 1 172 0.0
1 1 181 0.0025804856696598245
1 1 156 0.0025804856696598245
1 1 134 0.0031158041464565567
1 1 172 0.0031158041464565567
1 1 176 0.0032686842228531717
1 0 135 0.0032686842228531717
1 1 180 0.003537373900082347
1 1 122 0.003537373900082347
1 1 181 0.0019802722630050556
1 1 110 0.0019802722630050556
1 1 146 0.0009013607118093184
1 1 122 0.0009013607118093184
1 1 174 2.387875218772539e-05
1 1 164 2.387875218772539e-05
1 1 176 0.0026124620907396943
1 1 111 0.0026124620907396943
1 1 141 0.000216799842017306
1 0 141 0.000216799842017306
1 1 177 2.2614051210801408e-05
1 1 170 2.2614051210801408e-05
1 1 134 0.0
1 1 134 0.0
1 0 141 0.0043516313384725416
1 1 84 0.0043516313384725416
1 1 147 0.0033082348630142167
1 1 155 0.0033082348630142167
1 0 147 0.0019145364431441454
1 1 164 0.0019145364431441454
1 1 134 0.001582061358920891
1 0 82 0.001582061358920891
1 0 177 0.00310168504574346
1 0 80 0.00310168504574346
1 1 181 0.002481837465801782
1 1 156 0.002481837465801782
1 1 183 0.000693881719111481
1 1 180 0.000693881719111481
1 1 181 0.0029023738734864305
1 0 146 0.0029023738734864305
1 1 181 0.0030036177734789646
0 0 147 0.0030036177734789646
1 1 177 0.004935129111085623
1 1 80 0.004935129111085623
1 0 129 0.0005074300185529339
0 0 159 0.0005074300185529339
1 0 141 0.0
1 1 177 0.0
1 0 122 2.3266457650900196e-05
0 0 76 2.3266457650900196e-05
1 1 117 0.00016053368820832372
1 1 88 0.00016053368820832372
1 1 181 0.003060189496895692
1 1 156 0.003060189496895692
1 1 146 0.0015465966842380331
1 1 180 0.0015465966842380331
1 1 128 0.0020949182403749867
1 0 154 0.0020949182403749867
1 1 177 0.00040256260528976826
1 1 177 0.00040256260528976826
1 1 141 0.0003858185331369422
1 1 76 0.0003858185331369422
1 1 138 0.0006993344226723656
1 1 174 0.0006993344226723656
1 1 147 0.0027714843118319646
1 1 177 0.0027714843118319646
1 1 181 1.4835448144905195e-07
0 0 83 1.4835448144905195e-07
1 1 147 0.007589608313201289
1 1 172 0.007589608313201289
1 1 180 0.0035876146137899093
1 0 141 0.0035876146137899093
1 1 177 0.0051328768991082034
1 0 116 0.0051328768991082034
1 1 146 0.004669013879282013
1 1 169 0.004669013879282013
1 1 146 0.006229835545277676
1 1 129 0.006229835545277676
1 1 147 0.00522591684030182
1 1 165 0.00522591684030182
1 1 146 1.8608745042061047e-07
1 1 143 1.8608745042061047e-07
1 1 182 2.6560866413933408e-14
1 1 146 2.6560866413933408e-14
1 1 177 0.004418535227426296
1 0 122 0.004418535227426296
1 1 180 0.0037067656140717937
0 0 77 0.0037067656140717937
1 1 181 0.005514406590444055
1 1 101 0.005514406590444055
1 1 109 0.005044706108652195
1 0 108 0.005044706108652195
1 1 182 0.0037602292188636103
1 1 150 0.0037602292188636103
1 1 93 0.006919828393801257
1 1 161 0.006919828393801257
1 1 146 0.002984700275197799
1 0 180 0.002984700275197799
1 1 134 0.0035648533566551856
1 1 160 0.0035648533566551856
1 1 180 0.003519677239886529
1 1 170 0.003519677239886529
1 1 146 0.0010102135802994821
1 1 161 0.0010102135802994821
1 1 90 0.007868459421797114
1 1 157 0.007868459421797114
1 1 147 0.003971829540195493
1 1 140 0.003971829540195493
1 1 149 0.0053317725398610285
1 1 181 0.0053317725398610285
1 1 180 0.005135359063006401
1 1 141 0.005135359063006401
1 1 182 0.0067203377511209405
0 0 85 0.0067203377511209405
1 1 180 0.0036090117173860465
1 1 181 0.0036090117173860465
1 1 181 0.008787269016484007
1 1 180 0.008787269016484007
1 1 177 0.004386676580070989
1 1 140 0.004386676580070989
1 1 131 0.003472187270329898
1 1 91 0.003472187270329898
1 1 146 0.004336487382530516
1 1 181 0.004336487382530516
1 1 148 0.004697497384961023
1 1 149 0.004697497384961023
1 0 180 0.004962279026070512
1 1 160 0.004962279026070512
1 1 180 0.0045560206587606815
1 1 167 0.0045560206587606815
1 1 181 0.004390488111551131
0 0 152 0.004390488111551131
1 1 146 0.00557743736423898
1 1 94 0.00557743736423898
1 1 108 0.003910734120211258
1 1 157 0.003910734120211258
1 1 146 0.004634484633594682
1 1 106 0.004634484633594682
1 1 146 0.0033865573748235295
1 1 164 0.0033865573748235295
1 0 149 0.0043377053668255654
1 1 177 0.0043377053668255654
1 1 146 0.005310965913320073
1 0 95 0.005310965913320073
1 1 147 0.0035169827327805694
1 1 166 0.0035169827327805694
1 1 164 0.005318138931306713
1 0 97 0.005318138931306713
1 1 181 2.7165869615568017e-05
1 1 178 2.7165869615568017e-05
1 1 147 0.0026132556456567096
0 0 140 0.0026132556456567096
1 1 146 0.004743235946678436
1 0 116 0.004743235946678436
1 1 146 0.004972251676000684
1 1 176 0.004972251676000684
1 1 145 0.0035011953482989287
1 1 177 0.0035011953482989287
1 1 128 3.0079892885734184e-07
1 1 177 3.0079892885734184e-07
1 1 141 0.006697310005495281
1 1 166 0.006697310005495281
1 1 148 0.004984755604787978
1 1 146 0.004984755604787978
1 1 146 0.0035025252064102242
0 0 164 0.0035025252064102242
1 1 147 0.0
1 1 164 0.0
1 1 178 0.005200834411517885
0 0 83 0.005200834411517885
1 1 176 0.004126641449308694
1 1 170 0.004126641449308694
1 1 183 0.0053634597451594
1 1 177 0.0053634597451594
0 0 176 0.0034312836581358586
1 0 122 0.0034312836581358586
1 1 147 3.184088064320336e-05
1 1 122 3.184088064320336e-05
1 1 146 0.0036297848840008504
1 1 93 0.0036297848840008504
1 1 182 0.001078903188232223
1 1 164 0.001078903188232223
1 1 147 0.002669671400524536
1 1 83 0.002669671400524536
1 1 181 0.003935703527501592
1 1 180 0.003935703527501592
1 1 148 0.0005830841328614718
1 1 142 0.0005830841328614718
1 1 149 0.0
1 1 94 0.0
1 1 181 0.0011059618579885673
1 0 160 0.0011059618579885673
1 1 181 0.0013393293555601284
1 1 122 0.0013393293555601284
1 1 146 0.0009399522643492906
1 1 134 0.0009399522643492906
1 1 180 0.005826038671110112
1 0 153 0.005826038671110112
1 1 146 0.0
1 1 116 0.0
1 1 146 0.0011106755564842315
1 1 105 0.0011106755564842315
1 1 146 0.0010168969902230862
1 1 181 0.0010168969902230862
1 0 124 0.0
1 1 168 0.0
1 0 147 0.002252571345221978
1 0 83 0.002252571345221978
1 1 146 0.002955707193029316
1 1 164 0.002955707193029316
1 1 146 0.0024116900052582853
1 1 154 0.0024116900052582853
1 1 140 0.0015983665065839687
1 1 163 0.0015983665065839687
1 1 104 0.002252136712164722
1 1 157 0.002252136712164722
1 1 182 0.002134715567289241
1 1 145 0.002134715567289241
1 1 146 0.0
1 1 129 0.0
1 1 110 0.0
1 1 159 0.0
1 1 147 0.005225742620214817
1 1 139 0.005225742620214817
1 1 146 0.004654076747458177
1 1 176 0.004654076747458177
1 1 166 5.7500963672511196e-05
1 0 156 5.7500963672511196e-05
1 1 182 0.0
1 1 166 0.0
1 1 147 0.005611862395596484
1 0 146 0.005611862395596484
1 1 180 0.002786227536015697
1 1 134 0.002786227536015697
1 1 176 0.005248650694968014
1 1 176 0.005248650694968014
1 1 161 0.004743235518013914
1 1 162 0.004743235518013914
1 1 178 0.0038803823091312565
1 0 78 0.0038803823091312565
1 0 149 0.0020804984997042915
1 1 168 0.0020804984997042915
1 1 180 0.0035947076183443514
1 1 146 0.0035947076183443514
1 0 148 0.008353373149725386
1 0 134 0.008353373149725386
1 1 177 0.0005125607185486039
0 0 76 0.0005125607185486039
1 1 123 0.0043858569478012095
1 1 172 0.0043858569478012095
1 1 146 0.0034608803587703914
1 0 164 0.0034608803587703914
1 1 183 0.003181074928056699
1 1 147 0.003181074928056699
1 1 180 0.0037420840930158486
1 0 141 0.0037420840930158486
1 1 181 0.0035857206048840315
1 1 77 0.0035857206048840315
1 1 134 0.0013911612677192937
1 1 104 0.0013911612677192937
1 0 180 0.0002594094136627755
1 0 177 0.0002594094136627755
1 1 176 0.0004816792309656966
1 1 104 0.0004816792309656966
1 1 181 0.0004765502507018891
0 0 81 0.0004765502507018891
1 1 148 0.003092835931525875
1 1 146 0.003092835931525875
1 1 146 0.002998513957320244
1 1 146 0.002998513957320244
0 0 146 2.4040079124722337e-07
1 1 123 2.4040079124722337e-07
1 1 122 0.005330005474199122
0 1 154 0.005330005474199122
1 1 146 0.005572117200554641
1 1 146 0.005572117200554641
1 1 146 1.8816720830118684e-06
1 1 172 1.8816720830118684e-06
1 1 122 0.007238280234530832
1 1 93 0.007238280234530832
1 1 183 0.0049282055480896125
1 1 116 0.0049282055480896125
1 1 123 0.003877091566670082
1 1 104 0.003877091566670082
1 0 140 0.004045352199960657
1 0 83 0.004045352199960657
1 1 181 0.004095217414935543
1 1 182 0.004095217414935543
1 1 180 0.003995990075469619
1 1 173 0.003995990075469619
1 1 180 0.003753208836655776
1 1 93 0.003753208836655776
1 0 146 0.005236754692911807
1 1 134 0.005236754692911807
1 1 181 0.004017421091304323
1 1 93 0.004017421091304323
0 0 87 0.0022326312797378827
1 1 76 0.0022326312797378827
1 1 134 0.0034480918239829074
1 1 90 0.0034480918239829074
0 0 148 0.0032681821234504093
1 1 76 0.0032681821234504093
0 0 106 0.0025754351293888946
1 1 165 0.0025754351293888946
1 1 173 0.004364803984392167
1 1 162 0.004364803984392167
1 1 146 0.003991064346829203
1 1 161 0.003991064346829203
1 1 181 0.003667568640257939
1 1 169 0.003667568640257939
1 1 129 0.002288943840693608
1 1 160 0.002288943840693608
1 1 180 0.0011879340569076878
0 0 111 0.0011879340569076878
1 1 180 2.5252954420180666e-05
1 1 146 2.5252954420180666e-05
1 1 180 0.0034159528335295087
1 1 169 0.0034159528335295087
1 1 181 0.0
0 0 85 0.0
1 1 182 0.005145064480951586
1 1 180 0.005145064480951586
1 1 181 0.0026956011347597842
1 1 140 0.0026956011347597842
1 1 147 0.004057263428758833
1 0 135 0.004057263428758833
1 1 115 0.003972332026584536
1 0 107 0.003972332026584536
1 1 140 0.002509308398241767
0 0 90 0.002509308398241767
1 1 178 0.0019267968851169365
0 0 140 0.0019267968851169365
1 1 174 0.0007742178309612579
1 0 84 0.0007742178309612579
1 1 176 0.0007780595928550996
1 1 177 0.0007780595928550996
1 0 117 0.0004624305888718419
0 0 93 0.0004624305888718419
1 1 179 0.0
1 1 104 0.0
1 1 146 0.0
1 1 90 0.0
1 1 110 0.0
0 0 154 0.0
1 0 140 0.0013271649062487428
1 0 108 0.0013271649062487428
1 1 180 0.00024255967041089528
1 1 146 0.00024255967041089528
1 1 180 0.0006009558588250695
0 0 110 0.0006009558588250695
1 1 181 0.0009792722488535933
1 1 146 0.0009792722488535933
1 1 146 0.000931461836246807
0 0 156 0.000931461836246807
1 1 148 0.0015595977717306607
1 1 147 0.0015595977717306607
1 0 173 0.002610449833311469
1 0 94 0.002610449833311469
1 1 140 0.0031207305096301397
1 1 173 0.0031207305096301397
1 1 168 0.004817025081217563
1 0 94 0.004817025081217563
0 0 148 0.003777811558440727
1 1 168 0.003777811558440727
0 0 147 0.0016790830531526395
1 1 153 0.0016790830531526395
1 1 143 0.002070991409613249
1 1 140 0.002070991409613249
1 1 182 2.4447506863927913e-05
1 1 104 2.4447506863927913e-05
1 1 182 0.003317138673200505
1 1 155 0.003317138673200505
1 1 181 0.004121352898444326
1 1 121 0.004121352898444326
1 1 140 0.003735103079964121
1 1 94 0.003735103079964121
1 1 181 0.0002073670524441636
1 1 128 0.0002073670524441636
1 1 180 0.003316399500236855
0 0 95 0.003316399500236855
0 0 91 0.004479790311917792
1 1 158 0.004479790311917792
1 1 104 0.0030012383173824027
1 1 165 0.0030012383173824027
1 0 176 0.003871066901649878
0 0 122 0.003871066901649878
1 1 176 0.0035152010841593274
1 1 176 0.0035152010841593274
1 0 151 0.00015057652225820004
1 1 90 0.00015057652225820004
1 1 177 0.0024827115311781196
1 1 140 0.0024827115311781196
1 0 177 0.004693413725700781
1 1 128 0.004693413725700781
1 1 140 0.0004394768997674072
1 1 134 0.0004394768997674072
1 1 176 0.00015447347129486647
0 0 168 0.00015447347129486647
1 1 128 0.0034744197898002637
1 0 85 0.0034744197898002637
1 0 110 0.0
1 1 164 0.0
1 1 180 0.005538954230009198
1 1 117 0.005538954230009198
1 1 177 0.004462783257672471
1 1 166 0.004462783257672471
1 1 141 0.004011181331937721
1 1 84 0.004011181331937721
1 1 146 0.0042896403294592055
1 1 169 0.0042896403294592055
1 1 172 0.0038741421221290327
1 1 110 0.0038741421221290327
1 1 146 0.003317890030441437
1 1 122 0.003317890030441437
1 1 180 0.0033117867378225107
1 0 130 0.0033117867378225107
1 1 176 0.0019997755138552935
1 1 122 0.0019997755138552935
1 1 146 0.0002263100289505903
1 1 146 0.0002263100289505903
1 1 177 0.0005118573351627103
1 1 152 0.0005118573351627103
1 1 147 0.003991078389787828
1 1 177 0.003991078389787828
1 1 146 0.003771696199938008
1 1 77 0.003771696199938008
1 1 122 0.004393679825355436
1 1 163 0.004393679825355436
1 1 146 0.0028110073457436545
1 1 125 0.0028110073457436545
1 1 176 0.005830762885189169
1 1 113 0.005830762885189169
1 1 176 0.004529773425172713
1 1 110 0.004529773425172713
1 1 145 0.003341622488343757
1 1 167 0.003341622488343757
1 1 146 0.003317295189987562
1 1 152 0.003317295189987562
1 1 122 0.003401202843717477
1 1 166 0.003401202843717477
1 1 140 0.004505504654638796
1 1 177 0.004505504654638796
1 1 176 0.002790763369990177
1 1 140 0.002790763369990177
1 1 182 0.0030810258795268583
1 1 176 0.0030810258795268583
1 1 164 0.004011202307742632
1 1 162 0.004011202307742632
1 0 93 5.7035608120799024e-08
1 1 93 5.7035608120799024e-08
1 1 122 0.0036704172306928754
1 1 91 0.0036704172306928754
1 1 180 0.0025489451656152975
1 1 161 0.0025489451656152975
1 1 146 0.0023890722354877997
1 0 83 0.0023890722354877997
1 1 146 0.00315259397728194
1 1 154 0.00315259397728194
1 1 172 0.003209656109088025
1 1 83 0.003209656109088025
1 1 134 0.002864386389897969
1 1 169 0.002864386389897969
1 1 180 0.003827331273526281
1 1 177 0.003827331273526281
1 1 168 0.002904444312289817
1 1 90 0.002904444312289817
1 1 181 0.0035910074965037754
1 1 143 0.0035910074965037754
1 0 141 0.0010712236081569671
0 0 157 0.0010712236081569671
1 1 168 0.0029532884338860353
1 1 167 0.0029532884338860353
1 1 146 3.4252573499276236e-05
0 0 164 3.4252573499276236e-05
1 1 181 0.0034325077966870132
1 1 169 0.0034325077966870132
1 1 176 0.0
1 1 83 0.0
1 0 140 0.0028721599407231656
1 1 169 0.0028721599407231656
1 1 182 0.0021997109779890197
1 1 160 0.0021997109779890197
1 0 146 0.0036423831309487405
1 0 147 0.0036423831309487405
1 1 146 0.004139222783324081
1 1 173 0.004139222783324081
1 1 122 0.00310096401550263
1 1 91 0.00310096401550263
1 1 158 0.002511164407097405
1 0 153 0.002511164407097405
1 1 176 0.0034373457149232275
1 1 84 0.0034373457149232275
1 1 122 0.004269103605047502
1 1 154 0.004269103605047502
1 1 116 2.3666346582326093e-06
1 1 160 2.3666346582326093e-06
1 0 176 0.003478588503993391
1 1 134 0.003478588503993391
1 0 146 0.00462579848023686
1 1 177 0.00462579848023686
1 0 135 2.9931216628611447e-05
1 1 156 2.9931216628611447e-05
1 1 176 0.0008152288060417889
1 1 104 0.0008152288060417889
1 1 176 0.002852822542327782
1 1 83 0.002852822542327782
1 1 180 0.0028668604616322
1 1 168 0.0028668604616322
1 1 160 0.002969199243759286
1 1 156 0.002969199243759286
1 1 161 0.003623086289605929
1 0 157 0.003623086289605929
1 1 177 0.0028892194076259783
0 0 153 0.0028892194076259783
1 1 116 0.0032379056891226055
1 1 161 0.0032379056891226055
1 1 146 0.0
1 1 173 0.0
1 0 181 0.0
1 1 153 0.0
1 1 110 0.0
1 1 171 0.0
1 1 176 0.002696475318808498
1 0 161 0.002696475318808498
1 1 110 0.0005820983433474092
1 1 164 0.0005820983433474092
1 0 125 0.0010897331364681433
1 1 83 0.0010897331364681433
1 1 176 0.0006956190256848854
1 1 94 0.0006956190256848854
1 1 140 0.0010897946199727327
1 1 164 0.0010897946199727327
1 1 176 0.0011803371946113848
1 1 134 0.0011803371946113848
1 1 147 0.00044102222813412586
1 0 146 0.00044102222813412586
1 1 147 0.0008243815085452714
1 0 152 0.0008243815085452714
1 1 176 0.0
0 0 94 0.0
1 1 143 0.00092424382694003
1 1 134 0.00092424382694003
1 1 146 1.0105820569839134e-08
1 1 172 1.0105820569839134e-08
1 1 182 0.001215395358295738
0 0 83 0.001215395358295738
1 1 94 0.0
1 1 87 0.0
1 1 140 0.0008151751303915151
0 0 159 0.0008151751303915151
1 1 147 0.0011107802797441317
1 0 180 0.0011107802797441317
1 1 123 0.0
1 1 152 0.0
1 1 140 0.0
1 1 155 0.0
1 1 183 0.0003441249105920109
1 1 110 0.0003441249105920109
1 1 147 0.0008120877168629989
1 1 158 0.0008120877168629989
1 1 123 0.0011250224701548472
1 0 157 0.0011250224701548472
1 1 135 0.00029537313403342437
1 1 93 0.00029537313403342437
1 1 146 0.00022478280844358067
1 0 164 0.00022478280844358067
1 1 146 1.782986135377273e-08
1 1 165 1.782986135377273e-08
1 1 146 0.0010930513309620955
1 1 87 0.0010930513309620955
1 1 146 0.0002100474997012691
1 1 83 0.0002100474997012691
1 1 146 0.0010195048365071362
1 1 168 0.0010195048365071362
1 1 176 8.241992503335424e-06
1 1 170 8.241992503335424e-06
1 1 176 0.0010187162880169716
1 1 113 0.0010187162880169716
1 1 172 0.0007511287536417054
1 0 164 0.0007511287536417054
1 1 159 0.00041209640771180614
1 0 76 0.00041209640771180614
1 1 182 6.0672024889505324e-05
1 1 177 6.0672024889505324e-05
1 1 156 0.07424049724072954
0 0 76 0.07424049724072954
1 0 146 0.030163746819520432
0 0 164 0.030163746819520432
1 1 172 0.0
0 1 154 0.0
1 1 146 0.10684588516182393
0 0 83 0.10684588516182393
0 0 137 0.0
1 1 172 0.0
0 0 90 0.09733594619726611
1 1 157 0.09733594619726611
1 0 146 0.0946384216861764
0 0 87 0.0946384216861764
1 1 146 0.11735595596203556
0 0 80 0.11735595596203556
1 0 172 0.028091828202858007
0 0 92 0.028091828202858007
1 1 165 0.11056521506721653
0 0 83 0.11056521506721653
1 1 140 0.09502330059831647
0 0 155 0.09502330059831647
1 1 122 0.11010976009158768
0 0 157 0.11010976009158768
1 1 146 0.11815962010726248
0 0 76 0.11815962010726248
1 1 176 0.058701485184321237
0 0 76 0.058701485184321237
1 1 109 0.03451001960919591
0 0 156 0.03451001960919591
1 0 135 0.11711052802503977
0 0 77 0.11711052802503977
1 1 176 0.06683960462513652
0 0 77 0.06683960462513652
1 0 165 0.0
0 0 82 0.0
1 1 146 0.053770998032496096
0 1 76 0.053770998032496096
1 1 146 0.07096984657451909
0 0 90 0.07096984657451909
0 0 146 0.13972052588703615
1 1 78 0.13972052588703615
1 1 146 0.09004048013569652
0 0 152 0.09004048013569652
1 1 126 0.0988739047109942
0 0 97 0.0988739047109942
0 0 151 0.13959864312649148
1 1 180 0.13959864312649148
1 1 181 1.0535057146456649e-12
0 0 124 1.0535057146456649e-12
0 0 179 0.16688481713061187
1 0 137 0.16688481713061187
1 1 146 0.02385699763408539
0 0 123 0.02385699763408539
1 1 173 0.22358489090622014
0 0 118 0.22358489090622014
0 0 146 0.09967390889013317
1 1 176 0.09967390889013317
1 0 182 0.18651037641582024
0 0 148 0.18651037641582024
0 0 123 0.17115447298016193
1 1 172 0.17115447298016193
1 1 180 0.11478829728791091
0 0 89 0.11478829728791091
1 1 140 0.0
0 0 153 0.0
1 1 147 0.13690293993147692
0 0 76 0.13690293993147692
1 1 146 0.016425038783020145
0 0 157 0.016425038783020145
0 0 139 0.08840778385166526
1 1 113 0.08840778385166526
1 1 141 0.123806079028505
0 0 162 0.123806079028505
1 1 176 0.14849679159771684
0 0 158 0.14849679159771684
1 1 146 0.016905885846569543
0 0 153 0.016905885846569543
1 1 173 0.006335860763338646
0 0 99 0.006335860763338646
1 0 169 0.13584345572407774
0 0 154 0.13584345572407774
1 1 146 0.06730524289872443
0 0 122 0.06730524289872443
0 0 147 0.07253146111675145
1 1 177 0.07253146111675145
1 1 180 0.005872255702173089
0 0 157 0.005872255702173089
1 1 141 0.1939979440499858
0 0 157 0.1939979440499858
1 1 108 0.14318898683838
0 0 80 0.14318898683838
1 1 146 0.10621568220192516
0 0 152 0.10621568220192516
1 0 140 0.09422781169663687
0 0 76 0.09422781169663687
1 1 183 0.09421966749497847
0 0 137 0.09421966749497847
1 1 104 0.021914506294151384
0 0 103 0.021914506294151384
1 1 180 0.0
0 0 122 0.0
0 0 146 0.2384939532757713
1 1 174 0.2384939532757713
1 1 180 0.17519206474179952
0 0 158 0.17519206474179952
0 0 147 0.13177656261125162
1 1 110 0.13177656261125162
0 0 174 0.027844636432700368
1 1 116 0.027844636432700368
1 1 182 0.0007392074640606159
1 1 169 0.0007392074640606159
1 1 122 0.0007608029743630903
1 1 172 0.0007608029743630903
0 0 146 0.0008154586881151826
1 1 140 0.0008154586881151826
1 1 140 0.000844174342452309
1 1 110 0.000844174342452309
1 1 147 0.001042798190101558
1 1 176 0.001042798190101558
1 1 147 0.0007022075328790488
1 1 177 0.0007022075328790488
1 1 183 0.0006602816604881396
1 1 168 0.0006602816604881396
1 1 146 0.000994695802471209
1 1 134 0.000994695802471209
1 1 146 0.0008535675456140854
1 1 172 0.0008535675456140854
1 1 182 0.0007423184428440973
1 0 84 0.0007423184428440973
1 1 181 0.0007510749826789354
1 0 152 0.0007510749826789354
1 1 122 0.0007515584090890829
1 1 168 0.0007515584090890829
1 0 89 0.0007946061753729723
1 1 80 0.0007946061753729723
1 1 180 0.000726036186936386
1 1 129 0.000726036186936386
1 0 109 0.0008315658370051946
1 1 153 0.0008315658370051946
1 1 146 0.0005600897714446846
1 1 172 0.0005600897714446846
1 1 116 0.0007251296248885277
1 0 169 0.0007251296248885277
1 1 176 0.0007133221602549207
1 1 93 0.0007133221602549207
1 1 176 0.000765944648411486
1 1 165 0.000765944648411486
1 1 140 0.000716564756400691
1 1 93 0.000716564756400691
1 1 173 0.005945045806102891
1 1 108 0.005945045806102891
1 1 140 0.006900013414433392
1 1 165 0.006900013414433392
1 1 176 0.005825572408787859
1 0 165 0.005825572408787859
1 1 146 0.26571872270182467
0 0 113 0.26571872270182467
1 1 91 0.03240429383555798
0 0 153 0.03240429383555798
1 1 146 1.0042257756649136
0 0 98 1.0042257756649136
1 1 146 0.0001288689290091902
0 1 164 0.0001288689290091902
1 1 171 8.833604958273847e-05
1 0 153 8.833604958273847e-05
1 1 177 0.0001273890229116877
1 1 170 0.0001273890229116877
1 1 124 7.420453565633489e-05
0 0 152 7.420453565633489e-05
1 1 121 8.986560403230531e-05
1 1 166 8.986560403230531e-05
1 1 146 5.314346323212552e-05
1 0 113 5.314346323212552e-05
1 0 140 2.355375103453017e-05
0 0 82 2.355375103453017e-05
1 1 182 2.338927130527557e-05
1 1 167 2.338927130527557e-05
1 1 178 0.0
1 1 169 0.0
1 1 181 0.0
1 1 177 0.0
1 1 180 0.0
1 1 173 0.0
1 0 181 0.0
1 1 135 0.0
1 1 140 0.00021113626053204148
1 0 134 0.00021113626053204148
1 1 180 5.496053732351735e-06
1 1 90 5.496053732351735e-06
1 1 177 5.260837685166456e-05
1 1 125 5.260837685166456e-05
1 1 130 9.661416832719774e-09
1 1 152 9.661416832719774e-09
1 1 147 6.907005328525228e-05
0 0 93 6.907005328525228e-05
1 1 180 7.267450611897525e-05
1 0 90 7.267450611897525e-05
1 1 182 0.00015362720551038436
1 1 152 0.00015362720551038436
1 1 141 0.00015478891700847113
1 1 93 0.00015478891700847113
1 1 134 7.416734664667881e-09
0 0 91 7.416734664667881e-09
1 1 143 0.00010535207992285276
1 1 176 0.00010535207992285276
1 1 98 0.00013815838126079115
1 0 157 0.00013815838126079115
1 1 172 0.00023648879959586592
1 1 122 0.00023648879959586592
1 1 183 0.00014225851949352597
1 1 156 0.00014225851949352597
1 1 180 0.00014459869845610652
1 1 146 0.00014459869845610652
1 1 172 0.00012478596878337652
1 1 110 0.00012478596878337652
0 0 142 5.858117215347303e-16
1 0 170 5.858117215347303e-16
1 1 176 0.0001083933444505275
1 0 177 0.0001083933444505275
1 1 181 7.481642055817928e-09
1 0 93 7.481642055817928e-09
1 0 146 2.337092321201945e-05
1 1 83 2.337092321201945e-05
1 1 106 0.00010911104368604753
1 1 158 0.00010911104368604753
1 0 146 0.00015987325080727436
1 1 166 0.00015987325080727436
1 1 169 0.00011334566910395289
0 0 76 0.00011334566910395289
1 1 180 0.00012683178205425064
0 0 164 0.00012683178205425064
1 1 147 0.0001151342277635491
1 1 180 0.0001151342277635491
1 1 176 0.00010379437921381077
1 1 170 0.00010379437921381077
1 0 146 0.00013670993495496
1 1 168 0.00013670993495496
1 1 173 0.00012039317193404519
1 1 168 0.00012039317193404519
1 1 165 1.325491782247195e-09
1 1 157 1.325491782247195e-09
1 0 136 0.00012437554845356333
1 1 152 0.00012437554845356333
1 1 141 0.00013346226770092189
0 0 140 0.00013346226770092189
1 1 176 9.478561757781085e-05
1 1 134 9.478561757781085e-05
1 1 177 0.00012961858123278978
1 1 162 0.00012961858123278978
1 1 134 0.00013651345483435025
1 1 161 0.00013651345483435025
1 1 182 0.00016952707780123127
1 1 177 0.00016952707780123127
1 1 176 0.00014218966067289644
1 0 162 0.00014218966067289644
1 1 161 0.00012357680614062002
1 1 97 0.00012357680614062002
1 1 146 0.0001289582476066113
1 1 107 0.0001289582476066113
1 1 166 0.00017901834028980978
1 1 160 0.00017901834028980978
1 1 146 0.00011728251181692691
1 1 168 0.00011728251181692691
1 0 146 0.00012416447432528135
1 1 179 0.00012416447432528135
1 1 166 0.00014061199559897011
0 0 152 0.00014061199559897011
1 1 147 8.347159864846788e-05
1 1 176 8.347159864846788e-05
1 1 117 8.312797060784074e-05
1 1 162 8.312797060784074e-05
1 1 177 0.00013311922357961295
1 1 93 0.00013311922357961295
1 1 176 0.0001465866580176622
1 1 139 0.0001465866580176622
1 1 180 0.00014589038241823087
1 1 172 0.00014589038241823087
1 1 141 0.00023945660266671618
1 0 134 0.00023945660266671618
1 1 122 0.00010874277255601601
1 1 122 0.00010874277255601601
1 1 146 0.0001205077735259836
1 1 147 0.0001205077735259836
1 1 146 0.00020148761422461673
1 1 147 0.00020148761422461673
1 1 141 0.00010611254178146237
1 1 164 0.00010611254178146237
1 1 182 0.00020458571302100866
1 1 94 0.00020458571302100866
1 1 146 0.00015734226755736403
1 1 173 0.00015734226755736403
1 1 179 0.00012494616679879124
1 1 93 0.00012494616679879124
1 1 182 0.00013642987626677385
1 1 159 0.00013642987626677385
1 1 172 8.100965915402632e-05
1 1 105 8.100965915402632e-05
1 1 146 0.00015228817365862602
1 1 146 0.00015228817365862602
1 0 146 0.00012801664070850524
1 1 169 0.00012801664070850524
1 1 149 9.660461244991268e-05
1 1 153 9.660461244991268e-05
1 1 176 0.00011099947037512238
1 1 176 0.00011099947037512238
1 0 134 6.0702882956456396e-06
1 1 77 6.0702882956456396e-06
1 1 146 0.00012195424589669213
1 1 147 0.00012195424589669213
1 1 146 7.126701790588543e-05
1 1 173 7.126701790588543e-05
1 1 134 0.00011804453497569816
1 1 125 0.00011804453497569816
1 1 105 8.456232265495102e-05
1 1 76 8.456232265495102e-05
1 1 177 0.00017254219339446556
1 0 165 0.00017254219339446556
1 1 146 1.7559850347625887e-05
1 1 180 1.7559850347625887e-05
1 1 135 1.4811710654716795e-05
1 0 90 1.4811710654716795e-05
1 1 146 0.0
1 1 165 0.0
1 1 181 3.8188540634787604e-05
0 0 122 3.8188540634787604e-05
1 1 169 2.3666678664640602e-05
1 1 169 2.3666678664640602e-05
1 1 140 0.0
1 1 171 0.0
1 1 181 7.83625609910486e-05
1 1 134 7.83625609910486e-05
1 1 146 8.06903015934892e-05
1 1 122 8.06903015934892e-05
1 0 146 7.086130267955926e-05
1 1 135 7.086130267955926e-05
1 1 146 7.975322926741853e-05
1 1 84 7.975322926741853e-05
1 1 183 8.8638124837183e-05
1 1 172 8.8638124837183e-05
0 0 148 8.867941923303962e-05
1 1 177 8.867941923303962e-05
1 1 134 6.894212868652195e-05
1 1 119 6.894212868652195e-05
1 1 146 0.00012552237368401262
1 1 101 0.00012552237368401262
1 1 123 6.867002561861239e-05
1 1 93 6.867002561861239e-05
1 1 140 6.37506545436222e-05
1 1 175 6.37506545436222e-05
1 1 180 0.0001078017987783067
1 1 161 0.0001078017987783067
1 1 116 7.62360823997497e-05
1 0 83 7.62360823997497e-05
1 1 177 0.0001245736209378719
1 1 178 0.0001245736209378719
1 1 140 0.00010784928995951011
1 1 154 0.00010784928995951011
1 1 181 0.00010195633599525215
1 1 176 0.00010195633599525215
0 0 101 5.070109563298551e-05
1 0 76 5.070109563298551e-05
1 1 134 0.00011983502852578225
0 0 152 0.00011983502852578225
1 1 182 7.625854661965086e-05
1 1 180 7.625854661965086e-05
1 0 146 0.00014086517026571697
1 0 147 0.00014086517026571697
1 1 181 7.35910746185268e-05
1 1 95 7.35910746185268e-05
1 1 134 0.00010821050804300663
1 0 164 0.00010821050804300663
1 1 182 0.00011812256091687425
1 1 160 0.00011812256091687425
1 1 176 0.00011863169597967444
1 1 105 0.00011863169597967444
1 1 180 4.9254354891306676e-05
1 1 123 4.9254354891306676e-05
1 1 178 7.041525932755449e-05
1 1 167 7.041525932755449e-05
1 1 147 6.103204358273064e-05
1 1 176 6.103204358273064e-05
1 1 135 3.9545626114894396e-05
1 1 166 3.9545626114894396e-05
1 1 180 0.00015832645403077248
1 0 146 0.00015832645403077248
1 1 176 8.118499865930006e-05
1 1 156 8.118499865930006e-05
1 1 146 0.00011052792517240723
1 1 154 0.00011052792517240723
1 0 146 7.64989637344277e-05
1 1 162 7.64989637344277e-05
1 1 104 5.848313081823134e-05
1 1 164 5.848313081823134e-05
1 1 182 0.0
1 1 169 0.0
1 1 176 0.0
1 0 110 0.0
1 1 110 0.0
0 0 94 0.0
1 1 180 0.0
0 0 78 0.0
1 1 123 5.464670479328545e-07
1 0 174 5.464670479328545e-07
1 0 146 0.0001584919453404989
1 1 122 0.0001584919453404989
1 1 180 5.752684610137844e-05
1 1 134 5.752684610137844e-05
1 1 125 4.3168658219602606e-05
1 1 90 4.3168658219602606e-05
1 1 181 9.23047895792506e-07
1 1 157 9.23047895792506e-07
1 1 140 4.557895333831816e-05
1 1 176 4.557895333831816e-05
1 1 182 4.945105951623137e-05
1 1 153 4.945105951623137e-05
1 1 170 3.753226059373837e-06
1 1 154 3.753226059373837e-06
1 1 172 0.00011100294500480988
1 0 163 0.00011100294500480988
1 1 147 1.3631969809909788e-05
1 0 176 1.3631969809909788e-05
1 1 180 0.00011615074219606554
1 1 168 0.00011615074219606554
1 1 147 6.602927841695682e-05
1 1 177 6.602927841695682e-05
1 1 134 4.894236376195375e-05
1 1 177 4.894236376195375e-05
1 1 180 2.395112168672533e-05
1 1 123 2.395112168672533e-05
1 1 105 4.17559388044785e-05
1 0 98 4.17559388044785e-05
1 1 147 2.665421615799036e-05
1 1 93 2.665421615799036e-05
1 1 164 8.479271303698853e-05
1 1 160 8.479271303698853e-05
1 1 180 7.22356089851406e-05
1 1 154 7.22356089851406e-05
1 1 180 7.850149495419983e-05
1 1 171 7.850149495419983e-05
1 1 178 7.451937739331055e-05
1 0 97 7.451937739331055e-05
1 1 140 6.784717708686807e-05
1 1 122 6.784717708686807e-05
1 1 146 7.144094208108302e-05
1 1 117 7.144094208108302e-05
1 1 146 0.00011780756164082238
1 1 178 0.00011780756164082238
1 1 146 0.0001843998160772197
1 1 165 0.0001843998160772197
1 0 93 8.9139506766597e-05
1 0 77 8.9139506766597e-05
1 1 146 8.167257555054953e-05
1 1 179 8.167257555054953e-05
1 1 125 0.0001214952705319701
1 1 161 0.0001214952705319701
1 1 150 8.75732574571931e-05
1 1 164 8.75732574571931e-05
1 1 134 6.235188961873304e-05
1 1 85 6.235188961873304e-05
1 0 173 3.0321324870012663e-05
0 0 156 3.0321324870012663e-05
1 1 147 0.0
1 1 170 0.0
1 1 177 3.245011141549709e-05
1 1 175 3.245011141549709e-05
1 1 146 2.960314114602459e-05
1 1 158 2.960314114602459e-05
1 0 141 1.7255224103648636e-05
1 1 172 1.7255224103648636e-05
1 1 147 2.9497680036930293e-05
1 1 76 2.9497680036930293e-05
1 1 178 2.1658140888396884e-05
1 1 168 2.1658140888396884e-05
1 1 181 9.092755416788427e-06
1 1 171 9.092755416788427e-06
1 1 145 1.7537968365128798e-05
1 1 177 1.7537968365128798e-05
1 1 168 6.527033309300534e-05
1 1 111 6.527033309300534e-05
1 1 180 0.00010265219656660465
1 1 153 0.00010265219656660465
1 1 181 8.150423569148756e-05
1 0 123 8.150423569148756e-05
1 1 177 5.623634302331519e-05
1 1 171 5.623634302331519e-05
1 1 180 6.34663709522826e-05
1 1 166 6.34663709522826e-05
1 1 181 0.00010677958182880499
1 1 105 0.00010677958182880499
1 1 133 0.00012372426978064032
1 1 124 0.00012372426978064032
1 1 134 3.964369856517987e-05
1 1 93 3.964369856517987e-05
1 1 146 3.0261486060989855e-05
1 1 164 3.0261486060989855e-05
1 1 183 5.016935908816458e-05
1 0 165 5.016935908816458e-05
1 1 146 6.831178324538396e-05
1 1 146 6.831178324538396e-05
1 1 141 0.00014135460547739362
1 1 153 0.00014135460547739362
1 1 181 0.00010037592976942805
1 1 111 0.00010037592976942805
1 1 158 5.237550781118129e-05
1 1 77 5.237550781118129e-05
1 1 147 4.7926938527789286e-05
1 1 169 4.7926938527789286e-05
1 1 177 3.1151311377132805e-05
1 1 91 3.1151311377132805e-05
1 1 140 7.97078311535275e-05
1 0 165 7.97078311535275e-05
1 1 169 0.00012630236386032125
1 1 164 0.00012630236386032125
1 0 146 7.861020971797631e-05
1 1 148 7.861020971797631e-05
1 1 180 8.363783854513686e-05
1 0 105 8.363783854513686e-05
1 1 140 1.8967976999467825e-05
1 1 179 1.8967976999467825e-05
1 1 164 3.8140399754243716e-06
1 0 162 3.8140399754243716e-06
1 1 181 0.0
0 0 154 0.0
1 1 146 1.0060604804320902e-05
1 1 177 1.0060604804320902e-05
0 0 89 1.5290624012088235e-05
1 1 77 1.5290624012088235e-05
1 1 172 1.4034500093345798e-05
0 0 85 1.4034500093345798e-05
1 1 146 4.339407546214607e-06
1 0 178 4.339407546214607e-06
1 0 146 1.6604590289336473e-05
1 1 90 1.6604590289336473e-05
1 1 173 4.113762480195409e-06
1 1 90 4.113762480195409e-06
1 1 176 1.1903174678366824e-06
1 1 113 1.1903174678366824e-06
1 1 180 6.76790222370342e-05
1 1 178 6.76790222370342e-05
1 1 180 1.8211266042948812e-05
1 1 177 1.8211266042948812e-05
1 1 180 2.242309047772706e-05
1 1 146 2.242309047772706e-05
1 1 180 1.7637723096890003e-05
1 1 128 1.7637723096890003e-05
1 1 140 1.9279818548671518e-05
1 0 152 1.9279818548671518e-05
1 1 173 1.7478825657204486e-05
1 1 175 1.7478825657204486e-05
1 1 151 7.731857284682315e-05
1 1 101 7.731857284682315e-05
1 0 177 0.00011382186998247551
1 1 161 0.00011382186998247551
1 1 176 8.108455087617651e-05
1 0 128 8.108455087617651e-05
1 1 101 0.00019421159385886528
1 1 158 0.00019421159385886528
1 1 181 3.7769994257758065e-05
1 1 167 3.7769994257758065e-05
1 1 134 6.111412949625873e-05
1 0 105 6.111412949625873e-05
1 1 147 2.1383923914912e-05
1 1 156 2.1383923914912e-05
1 1 169 7.096267681019821e-05
1 1 81 7.096267681019821e-05
1 1 105 8.823851633612516e-05
1 0 83 8.823851633612516e-05
1 1 140 4.568426701387923e-05
1 1 76 4.568426701387923e-05
1 1 166 5.5029917519750116e-05
1 0 77 5.5029917519750116e-05
1 1 182 3.184891485965028e-05
1 1 154 3.184891485965028e-05
1 1 146 0.00010875698569458047
1 1 146 0.00010875698569458047
1 1 180 5.6897270727639126e-05
1 1 146 5.6897270727639126e-05
1 1 135 7.274809740003793e-05
1 1 117 7.274809740003793e-05
1 0 140 5.3019210174329534e-05
1 1 110 5.3019210174329534e-05
1 1 180 5.565067646241248e-05
1 1 180 5.565067646241248e-05
1 1 180 0.00012915855218531168
1 1 94 0.00012915855218531168
1 1 146 0.00010116683184871835
1 1 173 0.00010116683184871835
1 1 146 3.7618526676012086e-05
1 1 153 3.7618526676012086e-05
1 1 140 9.020746369937595e-05
1 0 118 9.020746369937595e-05
1 1 146 7.536829456396442e-05
1 1 105 7.536829456396442e-05
1 1 176 7.869594589384362e-05
1 1 177 7.869594589384362e-05
1 1 180 0.00011215092705854853
1 0 87 0.00011215092705854853
1 0 147 0.0
1 1 84 0.0
1 1 146 2.4121889769759e-05
1 1 162 2.4121889769759e-05
1 1 129 2.3245548977750196e-05
1 0 122 2.3245548977750196e-05
1 1 146 7.096631206481593e-05
1 1 119 7.096631206481593e-05
1 1 146 8.842423948500342e-05
1 1 172 8.842423948500342e-05
1 0 104 9.133222141231478e-05
1 1 160 9.133222141231478e-05
1 1 181 1.5269247031578816e-05
1 1 173 1.5269247031578816e-05
1 1 107 1.4542383645211927e-05
1 1 164 1.4542383645211927e-05
1 1 140 1.466209486338422e-05
1 1 160 1.466209486338422e-05
1 0 181 6.517808301301758e-05
1 1 122 6.517808301301758e-05
1 1 181 5.094335449338872e-05
1 1 91 5.094335449338872e-05
1 1 181 4.5406993673003714e-05
1 1 146 4.5406993673003714e-05
1 1 128 1.3663103099546932e-05
1 1 172 1.3663103099546932e-05
1 1 122 0.0
1 1 90 0.0
1 1 128 2.2667743588089514e-05
0 0 164 2.2667743588089514e-05
1 1 147 6.324267142775223e-06
1 1 172 6.324267142775223e-06
1 1 110 4.412730861025114e-06
1 1 107 4.412730861025114e-06
1 1 138 0.0
1 1 166 0.0
1 1 140 4.515517390868821e-05
1 0 122 4.515517390868821e-05
1 0 166 3.397530855995072e-05
1 1 94 3.397530855995072e-05
1 1 168 2.3357768589030365e-05
1 1 104 2.3357768589030365e-05
1 1 141 0.00010369208126567765
0 0 91 0.00010369208126567765
1 1 176 9.07448202062468e-05
1 1 153 9.07448202062468e-05
1 1 182 1.3663334235375038e-05
1 1 165 1.3663334235375038e-05
1 1 173 1.8158568543114207e-05
1 0 156 1.8158568543114207e-05
1 1 167 5.966998341750015e-07
0 0 80 5.966998341750015e-07
1 1 178 1.1669248130185442e-05
1 0 128 1.1669248130185442e-05
1 1 182 1.5196302930670118e-05
1 1 160 1.5196302930670118e-05
1 1 176 1.3374969207805248e-05
1 1 108 1.3374969207805248e-05
1 1 84 2.2427846700666292e-05
0 0 81 2.2427846700666292e-05
1 1 141 2.7411855749232156e-05
1 1 76 2.7411855749232156e-05
1 1 140 6.950540231983311e-05
1 0 128 6.950540231983311e-05
1 0 91 4.903278880001804e-05
0 1 157 4.903278880001804e-05
1 1 147 0.00011109289394618246
1 1 170 0.00011109289394618246
1 1 180 0.0
1 1 167 0.0
1 0 146 0.0
1 1 167 0.0
1 1 169 0.0
1 0 154 0.0
1 0 146 6.481769022485095e-05
1 0 110 6.481769022485095e-05
1 0 174 0.00010064527564233504
1 0 120 0.00010064527564233504
1 1 164 1.9086127302270013e-05
1 0 94 1.9086127302270013e-05
1 1 146 8.09347562621881e-05
1 1 157 8.09347562621881e-05
1 1 165 4.625578862031302e-06
1 1 162 4.625578862031302e-06
1 1 146 0.0
1 1 76 0.0
1 1 180 1.6286714410784968e-05
1 1 122 1.6286714410784968e-05
1 1 177 7.058800149912368e-05
1 1 176 7.058800149912368e-05
1 1 141 0.0
1 1 153 0.0
1 1 172 7.818233919416893e-05
0 0 91 7.818233919416893e-05
1 1 118 5.024322647645063e-05
1 1 105 5.024322647645063e-05
1 1 178 9.884701070602817e-05
1 1 166 9.884701070602817e-05
1 1 141 1.426891441544359e-05
1 1 116 1.426891441544359e-05
1 1 111 4.191110427932461e-06
1 1 170 4.191110427932461e-06
1 1 146 8.486594640873146e-05
1 1 160 8.486594640873146e-05
1 1 165 1.9087012043059477e-05
1 1 161 1.9087012043059477e-05
1 1 140 1.797683310808873e-05
1 1 164 1.797683310808873e-05
1 1 169 6.657731336271025e-05
1 1 76 6.657731336271025e-05
1 0 174 9.341358453239274e-05
1 1 165 9.341358453239274e-05
1 1 177 4.7327232135466464e-05
1 1 173 4.7327232135466464e-05
1 1 181 0.0001080539456692369
1 1 169 0.0001080539456692369
1 1 146 8.696341234870968e-05
1 1 168 8.696341234870968e-05
1 0 140 9.10167427057412e-06
1 1 179 9.10167427057412e-06
1 1 83 9.760109169637516e-05
1 1 153 9.760109169637516e-05
1 1 181 6.502802188604116e-05
1 1 134 6.502802188604116e-05
1 1 180 6.757906135882099e-05
1 1 146 6.757906135882099e-05
1 1 145 0.0
1 1 93 0.0
1 1 182 0.0
1 1 141 0.0
1 1 128 0.0
1 1 164 0.0
1 1 127 0.0
0 0 90 0.0
0 0 95 0.0
1 1 93 0.0
1 1 89 6.00912874266378e-05
1 0 159 6.00912874266378e-05
1 0 146 5.342238426674792e-05
0 0 91 5.342238426674792e-05
1 1 150 1.0706555490762562e-05
1 1 176 1.0706555490762562e-05
1 1 116 1.2186763324068558e-05
1 1 94 1.2186763324068558e-05
1 1 105 0.00014249614100245538
1 1 152 0.00014249614100245538
1 1 141 6.375552370692225e-05
1 1 135 6.375552370692225e-05
0 0 125 0.00011447658146668382
1 1 161 0.00011447658146668382
1 1 111 0.0001348841552018406
1 1 90 0.0001348841552018406
1 1 146 7.126380927642803e-05
1 1 146 7.126380927642803e-05
1 1 176 3.6905428294549254e-05
1 1 172 3.6905428294549254e-05
1 0 146 9.088757292147814e-06
1 1 134 9.088757292147814e-06
1 1 146 1.1383506135980196e-05
1 1 148 1.1383506135980196e-05
1 0 140 4.67530233046606e-06
1 1 84 4.67530233046606e-06
1 1 173 3.171447205581726e-05
1 1 110 3.171447205581726e-05
1 1 177 6.478730391660433e-05
1 1 123 6.478730391660433e-05
1 1 141 0.00018464196145648445
1 1 84 0.00018464196145648445
1 1 93 0.00011578156956757687
1 1 93 0.00011578156956757687
1 0 128 0.00011041547354280513
0 0 169 0.00011041547354280513
1 1 181 7.887664049953631e-05
1 0 173 7.887664049953631e-05
1 1 180 0.0001292111505261839
1 1 128 0.0001292111505261839
1 1 147 0.0001550896911194265
0 0 105 0.0001550896911194265
1 1 178 0.00011683410827250316
1 1 176 0.00011683410827250316
1 1 180 0.00010371092824555691
1 0 76 0.00010371092824555691
1 1 174 7.439677161459622e-05
1 0 122 7.439677161459622e-05
1 1 179 7.059864214837235e-05
1 1 134 7.059864214837235e-05
1 1 176 7.428327349001134e-05
1 1 105 7.428327349001134e-05
1 1 134 0.00010510500806555977
1 1 122 0.00010510500806555977
1 1 146 0.00011203226358729925
0 0 76 0.00011203226358729925
1 1 147 0.0001625373589687081
1 1 123 0.0001625373589687081
0 0 131 8.593520076144303e-05
1 1 170 8.593520076144303e-05
1 1 182 0.0001781394146075706
1 1 134 0.0001781394146075706
1 1 181 0.0
1 1 170 0.0
1 1 181 0.0
1 0 104 0.0
1 1 135 0.0
1 0 135 0.0
1 1 146 0.0
1 1 140 0.0
1 1 181 9.042931817959401e-05
1 1 134 9.042931817959401e-05
1 1 169 0.00014649159916404938
1 1 152 0.00014649159916404938
1 1 149 8.613683266580443e-05
1 1 111 8.613683266580443e-05
1 1 164 7.097294799004342e-05
1 1 156 7.097294799004342e-05
1 1 176 6.948714590095848e-05
1 1 90 6.948714590095848e-05
1 1 141 7.487657905560391e-05
1 1 110 7.487657905560391e-05
1 1 180 1.056975283745509e-05
1 1 97 1.056975283745509e-05
1 1 172 2.1180001899273728e-05
1 0 110 2.1180001899273728e-05
1 1 122 2.525029089880578e-05
0 0 78 2.525029089880578e-05
1 1 122 1.6370379142464952e-05
0 0 76 1.6370379142464952e-05
1 1 157 7.662957190178419e-05
1 0 77 7.662957190178419e-05
1 1 177 8.448624909428621e-07
1 1 116 8.448624909428621e-07
1 1 181 9.791160238348454e-05
1 1 134 9.791160238348454e-05
1 1 140 8.405941466948046e-05
1 1 166 8.405941466948046e-05
1 1 181 0.00013249917822291365
1 1 177 0.00013249917822291365
1 1 181 0.0001046587120293599
1 1 122 0.0001046587120293599
1 1 182 0.00010941720691228807
1 1 182 0.00010941720691228807
1 1 176 3.6242117898354785e-05
1 1 134 3.6242117898354785e-05
1 1 168 2.3339640328782173e-05
1 0 110 2.3339640328782173e-05
1 0 140 5.360073402820435e-05
1 1 122 5.360073402820435e-05
1 0 104 9.164212884648075e-05
1 1 165 9.164212884648075e-05
1 1 176 7.800380291887855e-05
1 1 167 7.800380291887855e-05
1 0 146 7.553879218224307e-05
1 1 165 7.553879218224307e-05
1 1 140 9.721670356706698e-05
1 1 177 9.721670356706698e-05
1 0 180 6.169323382278718e-05
1 0 164 6.169323382278718e-05
1 1 163 0.00010306538143595951
1 1 158 0.00010306538143595951
1 1 141 8.364860621163468e-05
1 0 91 8.364860621163468e-05
1 1 146 7.519448032406822e-07
0 0 156 7.519448032406822e-07
1 1 181 2.49314085565247e-05
1 1 180 2.49314085565247e-05
1 1 181 1.9884628439194704e-05
0 0 152 1.9884628439194704e-05
1 1 177 0.0
1 1 116 0.0
1 1 178 7.231272769874379e-07
1 1 76 7.231272769874379e-07
1 1 123 0.014357822466233496
1 1 123 0.014357822466233496
1 1 134 0.0014699852928784939
1 1 173 0.0014699852928784939
1 1 147 0.009811286388548687
1 1 182 0.009811286388548687
1 1 146 0.014249495692322603
1 1 166 0.014249495692322603
1 1 117 0.010180561742473164
1 0 104 0.010180561742473164
1 1 146 0.009466071290374817
1 1 165 0.009466071290374817
1 0 104 0.013717837692327702
1 1 161 0.013717837692327702
1 1 151 0.008013827755611054
1 1 181 0.008013827755611054
1 1 146 0.005551499781494008
1 1 146 0.005551499781494008
1 1 145 0.0020335084547920945
1 1 178 0.0020335084547920945
1 1 182 0.0013987745729508586
1 1 135 0.0013987745729508586
1 1 147 0.008772439884327285
1 1 134 0.008772439884327285
1 1 93 0.002070407779092668
1 1 159 0.002070407779092668
1 1 181 0.007476525908648515
1 0 129 0.007476525908648515
1 1 177 0.003669412219137667
1 0 157 0.003669412219137667
1 0 146 9.906004481922212e-05
1 1 134 9.906004481922212e-05
1 1 175 0.008943416095039283
1 1 156 0.008943416095039283
1 1 180 0.004573298602432038
1 1 179 0.004573298602432038
1 1 180 0.01219208328143669
1 1 170 0.01219208328143669
1 1 181 0.006675023021829336
1 1 178 0.006675023021829336
1 1 180 0.00980453172033963
1 1 180 0.00980453172033963
1 1 111 0.013177714215790226
1 0 83 0.013177714215790226
1 1 134 0.01634241666793596
1 1 176 0.01634241666793596
1 1 180 0.010096324131568106
1 0 178 0.010096324131568106
1 1 146 0.0048058289313172575
1 1 170 0.0048058289313172575
1 1 147 0.0018610403907234287
1 1 117 0.0018610403907234287
1 1 181 7.283694368668194e-05
1 1 93 7.283694368668194e-05
1 1 180 0.0
1 0 146 0.0
1 1 181 0.008194648328072988
1 1 143 0.008194648328072988
1 1 181 0.00820182300799011
1 1 165 0.00820182300799011
1 1 177 0.0054935891425923955
1 1 169 0.0054935891425923955
1 1 178 0.009875556168410349
1 1 165 0.009875556168410349
1 1 174 0.0031283189939048934
1 1 170 0.0031283189939048934
1 1 173 0.0
1 1 171 0.0
1 0 149 0.004228509139917467
1 1 183 0.004228509139917467
1 1 147 0.008165491697471928
1 1 104 0.008165491697471928
1 1 150 0.006948904677123874
1 1 93 0.006948904677123874
1 1 164 0.00863821954593374
1 0 94 0.00863821954593374
1 1 146 0.006535780745575623
1 1 161 0.006535780745575623
1 1 141 0.005393920616234949
1 1 169 0.005393920616234949
1 1 180 3.1186021675993824e-07
1 1 170 3.1186021675993824e-07
1 1 147 0.009365386208574168
1 1 127 0.009365386208574168
1 1 182 0.006611176535962408
1 1 120 0.006611176535962408
1 1 149 0.008104082790318457
1 1 179 0.008104082790318457
1 1 181 0.005232083778515227
1 1 91 0.005232083778515227
1 1 182 0.00352936876879304
1 1 169 0.00352936876879304
1 1 140 0.007519090760861607
1 1 128 0.007519090760861607
1 1 117 0.0003311065621799744
1 0 105 0.0003311065621799744
1 1 183 0.00491822805147635
1 1 114 0.00491822805147635
1 1 180 0.011630928031895622
1 1 85 0.011630928031895622
1 1 146 0.00786246524613693
1 1 181 0.00786246524613693
1 1 145 0.004523309390396515
1 1 169 0.004523309390396515
1 1 183 0.003537843863905749
1 1 140 0.003537843863905749
1 1 147 0.00545174868172766
1 1 170 0.00545174868172766
1 1 142 0.005904749229028586
1 1 165 0.005904749229028586
1 1 170 0.0022629690040431704
1 1 166 0.0022629690040431704
1 1 183 0.0011640761411549658
1 1 160 0.0011640761411549658
1 1 146 0.008193184430945627
1 1 157 0.008193184430945627
1 1 126 0.010155369968512771
1 1 116 0.010155369968512771
1 1 179 0.01087700180303978
1 1 105 0.01087700180303978
1 1 181 0.006976171206327363
1 1 105 0.006976171206327363
1 1 105 0.0020401290458243434
1 1 152 0.0020401290458243434
1 1 181 0.0018327381904808702
1 1 140 0.0018327381904808702
1 1 168 0.0015756130831814847
1 1 82 0.0015756130831814847
1 1 179 0.00607068708190953
1 1 153 0.00607068708190953
1 1 177 0.005200028936092689
1 0 177 0.005200028936092689
1 1 177 0.009401101666346832
1 1 84 0.009401101666346832
1 1 146 0.004358644080837619
1 1 173 0.004358644080837619
1 1 172 0.0
1 0 104 0.0
1 1 147 0.0012511510822690508
1 1 175 0.0012511510822690508
1 1 146 0.0
1 1 162 0.0
1 1 180 0.0
1 1 128 0.0
1 1 146 0.0023832515774046335
1 1 155 0.0023832515774046335
1 1 148 0.004315268623081942
1 0 93 0.004315268623081942
1 1 151 0.00460425141714181
1 1 168 0.00460425141714181
1 0 146 0.00933213132610664
1 1 142 0.00933213132610664
1 0 140 0.005308213840220966
1 1 154 0.005308213840220966
1 1 147 0.0040431369743969305
1 1 143 0.0040431369743969305
1 1 150 0.007857302438082601
1 1 161 0.007857302438082601
1 0 125 4.117003316341007e-05
1 1 155 4.117003316341007e-05
1 1 147 0.0
1 1 122 0.0
1 1 169 0.0
1 0 92 0.0
1 1 148 0.005891982185282291
1 1 156 0.005891982185282291
1 1 146 0.0010422749427549554
1 1 122 0.0010422749427549554
0 0 147 0.15836003309654562
1 0 84 0.15836003309654562
1 1 180 0.028295303931388665
1 1 159 0.028295303931388665
